template/latency_tb/dump.vcd
$version Generated by VerilatedVcd $end
$timescale 1ps $end
 $scope module $rootio $end
  $var wire 1 # clk $end
  $var wire 1 $ rst $end
  $var wire 8 % instr [7:0] $end
  $var wire 256 & cycle_count [255:0] $end
 $upscope $end
 $scope module top $end
  $var wire 1 . clk $end
  $var wire 1 / rst $end
  $var wire 8 0 instr [7:0] $end
  $var wire 256 1 cycle_count [255:0] $end
  $var wire 4 9 opcode [3:0] $end
  $var wire 2 : rd [1:0] $end
  $var wire 2 ; rs1 [1:0] $end
  $var wire 2 < rs2 [1:0] $end
  $var wire 8 = reg_out1 [7:0] $end
  $var wire 8 > reg_out2 [7:0] $end
  $var wire 8 ? write_data [7:0] $end
  $var wire 1 @ reg_write $end
  $var wire 16 A alu_out [15:0] $end
  $var wire 8 B ram_out [7:0] $end
  $var wire 1 C mem_write $end
  $scope module alu $end
   $var wire 32 a WIDTH [31:0] $end
   $var wire 1 D clk $end
   $var wire 1 E rst $end
   $var wire 4 F opcode [3:0] $end
   $var wire 8 G a [7:0] $end
   $var wire 8 H b [7:0] $end
   $var wire 16 I out [15:0] $end
   $var wire 16 J acc [15:0] $end
   $var wire 16 K a_ext [15:0] $end
   $var wire 16 L b_ext [15:0] $end
  $upscope $end
  $scope module data_mem $end
   $var wire 32 b DEPTH [31:0] $end
   $var wire 32 a ADDR_WIDTH [31:0] $end
   $var wire 1 M clk $end
   $var wire 1 N wr_en $end
   $var wire 8 O addr [7:0] $end
   $var wire 8 P wr_data [7:0] $end
   $var wire 8 Q rd_data [7:0] $end
   $var wire 32 R i [31:0] $end
  $upscope $end
  $scope module regfile $end
   $var wire 1 S clk $end
   $var wire 1 T rst $end
   $var wire 1 U wr_en $end
   $var wire 2 V rd_addr [1:0] $end
   $var wire 2 W rs1_addr [1:0] $end
   $var wire 2 X rs2_addr [1:0] $end
   $var wire 8 Y wr_data [7:0] $end
   $var wire 8 Z rs1_data [7:0] $end
   $var wire 8 [ rs2_data [7:0] $end
   $var wire 8 \ regs[0] [7:0] $end
   $var wire 8 ] regs[1] [7:0] $end
   $var wire 8 ^ regs[2] [7:0] $end
   $var wire 8 _ regs[3] [7:0] $end
   $var wire 32 ` i [31:0] $end
  $upscope $end
 $upscope $end
$enddefinitions $end


#0
0#
1$
b00000000 %
b0000000000000000000000000000000000000000000000000000000000000000000000000000000000000000000000000000000000000000000000000000000000000000000000000000000000000000000000000000000000000000000000000000000000000000000000000000000000000000000000000000000000000000 &
0.
1/
b00000000 0
b0000000000000000000000000000000000000000000000000000000000000000000000000000000000000000000000000000000000000000000000000000000000000000000000000000000000000000000000000000000000000000000000000000000000000000000000000000000000000000000000000000000000000000 1
b0000 9
b00 :
b00 ;
b00 <
b00000000 =
b00000000 >
b00000000 ?
1@
b0000000000000000 A
b00000000 B
0C
0D
1E
b0000 F
b00000000 G
b00000000 H
b0000000000000000 I
b0000000000000000 J
b0000000000000000 K
b0000000000000000 L
0M
0N
b00000000 O
b00000000 P
b00000000 Q
b00000000000000000000000001000000 R
0S
1T
1U
b00 V
b00 W
b00 X
b00000000 Y
b00000000 Z
b00000000 [
b00000000 \
b00000000 ]
b00000000 ^
b00000000 _
b00000000000000000000000000000100 `
b00000000000000000000000000001000 a
b00000000000000000000000001000000 b
#5000
1#
1.
1D
1M
1S
#10000
0#
0.
0D
0M
0S
#15000
1#
1.
1D
1M
1S
#20000
0#
0$
0.
0/
0D
0E
0M
0S
0T
#25000
1#
b0000000000000000000000000000000000000000000000000000000000000000000000000000000000000000000000000000000000000000000000000000000000000000000000000000000000000000000000000000000000000000000000000000000000000000000000000000000000000000000000000000000000000001 &
1.
b0000000000000000000000000000000000000000000000000000000000000000000000000000000000000000000000000000000000000000000000000000000000000000000000000000000000000000000000000000000000000000000000000000000000000000000000000000000000000000000000000000000000000001 1
b00000001 B
1D
1M
b00000001 Q
1S
#30000
0#
b01000110 %
0.
b01000110 0
b0100 9
b01 :
b10 ;
b10 <
b00000001 =
b00000001 >
0D
b0100 F
b00000001 G
b00000001 H
b0000000000000001 K
b0000000000000001 L
0M
b00000001 O
b00000001 P
0S
b01 V
b10 W
b10 X
b00000001 Z
b00000001 [
b00000010 ]
b00000001 ^
#35000
1#
b00100110 %
b0000000000000000000000000000000000000000000000000000000000000000000000000000000000000000000000000000000000000000000000000000000000000000000000000000000000000000000000000000000000000000000000000000000000000000000000000000000000000000000000000000000000000010 &
1.
b00100110 0
b0000000000000000000000000000000000000000000000000000000000000000000000000000000000000000000000000000000000000000000000000000000000000000000000000000000000000000000000000000000000000000000000000000000000000000000000000000000000000000000000000000000000000010 1
b0010 9
b00000010 =
b00000010 >
b00000001 ?
b0000000000000001 A
b00000010 B
1D
b0010 F
b00000010 G
b00000010 H
b0000000000000001 I
b0000000000000010 K
b0000000000000010 L
1M
b00000010 O
b00000010 P
b00000010 Q
1S
b00000001 Y
b00000010 Z
b00000010 [
b00000010 ^
#40000
0#
0.
0D
0M
0S
#45000
1#
b01000110 %
b0000000000000000000000000000000000000000000000000000000000000000000000000000000000000000000000000000000000000000000000000000000000000000000000000000000000000000000000000000000000000000000000000000000000000000000000000000000000000000000000000000000000000011 &
1.
b01000110 0
b0000000000000000000000000000000000000000000000000000000000000000000000000000000000000000000000000000000000000000000000000000000000000000000000000000000000000000000000000000000000000000000000000000000000000000000000000000000000000000000000000000000000000011 1
b0100 9
b00000001 =
b00000001 >
b00000100 ?
b0000000000000100 A
b00000011 B
1D
b0100 F
b00000001 G
b00000001 H
b0000000000000100 I
b0000000000000001 K
b0000000000000001 L
1M
b00000001 O
b00000001 P
b00000011 Q
1S
b00000100 Y
b00000001 Z
b00000001 [
b00000101 ]
b00000001 ^
#50000
0#
0.
0D
0M
0S
#55000
1#
b00100110 %
b0000000000000000000000000000000000000000000000000000000000000000000000000000000000000000000000000000000000000000000000000000000000000000000000000000000000000000000000000000000000000000000000000000000000000000000000000000000000000000000000000000000000000100 &
1.
b00100110 0
b0000000000000000000000000000000000000000000000000000000000000000000000000000000000000000000000000000000000000000000000000000000000000000000000000000000000000000000000000000000000000000000000000000000000000000000000000000000000000000000000000000000000000100 1
b0010 9
b00000010 =
b00000010 >
b00000001 ?
b0000000000000001 A
b00000010 B
1D
b0010 F
b00000010 G
b00000010 H
b0000000000000001 I
b0000000000000010 K
b0000000000000010 L
1M
b00000010 O
b00000010 P
b00000010 Q
1S
b00000001 Y
b00000010 Z
b00000010 [
b00000011 ]
b00000010 ^
#60000
0#
0.
0D
0M
0S
#65000
1#
b0000000000000000000000000000000000000000000000000000000000000000000000000000000000000000000000000000000000000000000000000000000000000000000000000000000000000000000000000000000000000000000000000000000000000000000000000000000000000000000000000000000000000101 &
1.
b0000000000000000000000000000000000000000000000000000000000000000000000000000000000000000000000000000000000000000000000000000000000000000000000000000000000000000000000000000000000000000000000000000000000000000000000000000000000000000000000000000000000000101 1
b00000101 =
b00000101 >
b00000100 ?
b0000000000000100 A
b00000011 B
1D
b00000101 G
b00000101 H
b0000000000000100 I
b0000000000000101 K
b0000000000000101 L
1M
b00000101 O
b00000101 P
b00000011 Q
1S
b00000100 Y
b00000101 Z
b00000101 [
b00000010 ]
b00000101 ^
#70000
0#
0.
0D
0M
0S
#75000
1#
b01000110 %
b0000000000000000000000000000000000000000000000000000000000000000000000000000000000000000000000000000000000000000000000000000000000000000000000000000000000000000000000000000000000000000000000000000000000000000000000000000000000000000000000000000000000000110 &
1.
b01000110 0
b0000000000000000000000000000000000000000000000000000000000000000000000000000000000000000000000000000000000000000000000000000000000000000000000000000000000000000000000000000000000000000000000000000000000000000000000000000000000000000000000000000000000000110 1
b0100 9
b00000001 =
b00000001 >
b00011001 ?
b0000000000011001 A
b00000000 B
1D
b0100 F
b00000001 G
b00000001 H
b0000000000011001 I
b0000000000000001 K
b0000000000000001 L
1M
b00000001 O
b00000001 P
b00000000 Q
1S
b00011001 Y
b00000001 Z
b00000001 [
b00001011 ]
b00000001 ^
#80000
0#
0.
0D
0M
0S
#85000
1#
b0000000000000000000000000000000000000000000000000000000000000000000000000000000000000000000000000000000000000000000000000000000000000000000000000000000000000000000000000000000000000000000000000000000000000000000000000000000000000000000000000000000000000111 &
1.
b0000000000000000000000000000000000000000000000000000000000000000000000000000000000000000000000000000000000000000000000000000000000000000000000000000000000000000000000000000000000000000000000000000000000000000000000000000000000000000000000000000000000000111 1
b00000001 ?
b0000000000000001 A
b00000010 B
1D
b0000000000000001 I
1M
b00000010 Q
1S
b00000001 Y
b00011001 ]
#90000
0#
0.
0D
0M
0S
#95000
1#
b0000000000000000000000000000000000000000000000000000000000000000000000000000000000000000000000000000000000000000000000000000000000000000000000000000000000000000000000000000000000000000000000000000000000000000000000000000000000000000000000000000000000001000 &
1.
b0000000000000000000000000000000000000000000000000000000000000000000000000000000000000000000000000000000000000000000000000000000000000000000000000000000000000000000000000000000000000000000000000000000000000000000000000000000000000000000000000000000000001000 1
1D
1M
1S
b00000001 ]
