template/your_testbench/dump.vcd
$version Generated by VerilatedVcd $end
$timescale 1ps $end
 $scope module $rootio $end
  $var wire 1 # clk $end
  $var wire 1 $ rst $end
  $var wire 8 % instr [7:0] $end
  $var wire 256 & cycle_count [255:0] $end
 $upscope $end
 $scope module top $end
  $var wire 1 . clk $end
  $var wire 1 / rst $end
  $var wire 8 0 instr [7:0] $end
  $var wire 256 1 cycle_count [255:0] $end
  $var wire 4 9 opcode [3:0] $end
  $var wire 2 : rd [1:0] $end
  $var wire 2 ; rs1 [1:0] $end
  $var wire 2 < rs2 [1:0] $end
  $var wire 1 = reg_wr_en $end
  $var wire 1 > ram_wr_en $end
  $var wire 1 ? sel_mem_to_reg $end
  $var wire 2 @ alu_op [1:0] $end
  $var wire 1 A auto_inc $end
  $var wire 8 B rs1_data [7:0] $end
  $var wire 8 C rs2_data [7:0] $end
  $var wire 8 D alu_out [7:0] $end
  $var wire 8 E ram_rd_data [7:0] $end
  $var wire 8 F write_back_data [7:0] $end
  $var wire 1 G halt $end
  $var wire 8 H instr_internal [7:0] $end
  $var wire 8 I alu_operand_b [7:0] $end
  $var wire 1 J ram_wr_data $end
  $scope module alu $end
   $var wire 32 s WIDTH [31:0] $end
   $var wire 8 K a [7:0] $end
   $var wire 8 L b [7:0] $end
   $var wire 8 M c [7:0] $end
   $var wire 2 N opcode [1:0] $end
   $var wire 8 O out [7:0] $end
   $var wire 8 P smac_div_result [7:0] $end
   $var wire 8 Q add_res [7:0] $end
   $var wire 8 R div_res [7:0] $end
  $upscope $end
  $scope module data_mem $end
   $var wire 32 t DEPTH [31:0] $end
   $var wire 32 s ADDR_WIDTH [31:0] $end
   $var wire 1 S clk $end
   $var wire 1 T wr_en $end
   $var wire 8 U addr [7:0] $end
   $var wire 8 V wr_data [7:0] $end
   $var wire 8 W rd_data [7:0] $end
   $var wire 32 X i [31:0] $end
  $upscope $end
  $scope module decoder $end
   $var wire 8 Y instr [7:0] $end
   $var wire 4 Z opcode [3:0] $end
   $var wire 2 [ rd [1:0] $end
   $var wire 2 \ rs1 [1:0] $end
   $var wire 2 ] rs2 [1:0] $end
   $var wire 1 ^ reg_wr_en $end
   $var wire 1 _ ram_wr_en $end
   $var wire 2 ` alu_op [1:0] $end
   $var wire 1 a sel_mem_to_reg $end
   $var wire 1 b halt $end
   $var wire 1 c auto_inc $end
  $upscope $end
  $scope module rf $end
   $var wire 1 d clk $end
   $var wire 1 e rst $end
   $var wire 1 f wr_en $end
   $var wire 2 g rd_addr [1:0] $end
   $var wire 2 h rs1_addr [1:0] $end
   $var wire 1 i auto_inc $end
   $var wire 2 j rs2_addr [1:0] $end
   $var wire 8 k wr_data [7:0] $end
   $var wire 8 l rs1_data [7:0] $end
   $var wire 8 m rs2_data [7:0] $end
   $var wire 8 n regs[0] [7:0] $end
   $var wire 8 o regs[1] [7:0] $end
   $var wire 8 p regs[2] [7:0] $end
   $var wire 8 q regs[3] [7:0] $end
   $var wire 32 r i [31:0] $end
  $upscope $end
 $upscope $end
$enddefinitions $end


#0
1#
1$
b00000000 %
b0000000000000000000000000000000000000000000000000000000000000000000000000000000000000000000000000000000000000000000000000000000000000000000000000000000000000000000000000000000000000000000000000000000000000000000000000000000000000000000000000000000000000000 &
1.
1/
b00000000 0
b0000000000000000000000000000000000000000000000000000000000000000000000000000000000000000000000000000000000000000000000000000000000000000000000000000000000000000000000000000000000000000000000000000000000000000000000000000000000000000000000000000000000000000 1
b0000 9
b00 :
b00 ;
b00 <
1=
0>
1?
b00 @
1A
b00000000 B
b00000000 C
b00000000 D
b00000000 E
b00000000 F
0G
b00000000 H
b00000000 I
0J
b00000000 K
b00000000 L
b00000000 M
b00 N
b00000000 O
b00000000 P
b00000000 Q
b00000000 R
1S
0T
b00000000 U
b00000000 V
b00000000 W
b00000000000000000000000001000000 X
b00000000 Y
b0000 Z
b00 [
b00 \
b00 ]
1^
0_
b00 `
1a
0b
1c
1d
1e
1f
b00 g
b00 h
1i
b00 j
b00000000 k
b00000000 l
b00000000 m
b00000000 n
b00000000 o
b00001010 p
b00010100 q
b00000000000000000000000000000000 r
b00000000000000000000000000001000 s
b00000000000000000000000001000000 t
#5000
0#
0$
0.
0/
0S
0d
0e
#10000
1#
b00001100 %
b0000000000000000000000000000000000000000000000000000000000000000000000000000000000000000000000000000000000000000000000000000000000000000000000000000000000000000000000000000000000000000000000000000000000000000000000000000000000000000000000000000000000000001 &
1.
b00001100 0
b0000000000000000000000000000000000000000000000000000000000000000000000000000000000000000000000000000000000000000000000000000000000000000000000000000000000000000000000000000000000000000000000000000000000000000000000000000000000000000000000000000000000000001 1
b00000001 B
b00000001 C
b00000010 D
b00000001 K
b00000001 L
b00000001 M
b00000010 O
b00000010 Q
b00000001 R
1S
b00000001 U
b00000001 V
1d
b00000001 l
b00000001 m
b00000001 n
#15000
0#
0.
0S
0d
#20000
1#
b00000010 %
b0000000000000000000000000000000000000000000000000000000000000000000000000000000000000000000000000000000000000000000000000000000000000000000000000000000000000000000000000000000000000000000000000000000000000000000000000000000000000000000000000000000000000010 &
1.
b00000010 0
b0000000000000000000000000000000000000000000000000000000000000000000000000000000000000000000000000000000000000000000000000000000000000000000000000000000000000000000000000000000000000000000000000000000000000000000000000000000000000000000000000000000000000010 1
b00000010 B
b00000010 C
b00000100 D
b00000010 K
b00000010 L
b00000010 M
b00000100 O
b01111111 P
b00000100 Q
1S
b00000010 U
b00000010 V
1d
b00000010 l
b00000010 m
b00000010 n
#25000
0#
0.
0S
0d
#30000
1#
b01000011 %
b0000000000000000000000000000000000000000000000000000000000000000000000000000000000000000000000000000000000000000000000000000000000000000000000000000000000000000000000000000000000000000000000000000000000000000000000000000000000000000000000000000000000000011 &
1.
b01000011 0
b0000000000000000000000000000000000000000000000000000000000000000000000000000000000000000000000000000000000000000000000000000000000000000000000000000000000000000000000000000000000000000000000000000000000000000000000000000000000000000000000000000000000000011 1
b00000011 B
b00000011 C
b00000110 D
b00000011 K
b00000011 L
b00000011 M
b00000110 O
b01010011 P
b00000110 Q
1S
b00000011 U
b00000011 V
1d
b00000011 l
b00000011 m
b00000011 n
#35000
0#
0.
0S
0d
#40000
1#
b00010011 %
b0000000000000000000000000000000000000000000000000000000000000000000000000000000000000000000000000000000000000000000000000000000000000000000000000000000000000000000000000000000000000000000000000000000000000000000000000000000000000000000000000000000000000100 &
1.
b00010011 0
b0000000000000000000000000000000000000000000000000000000000000000000000000000000000000000000000000000000000000000000000000000000000000000000000000000000000000000000000000000000000000000000000000000000000000000000000000000000000000000000000000000000000000100 1
b00000100 B
b00000100 C
b00001000 D
b00000100 K
b00000100 L
b00000100 M
b00001000 O
b00111101 P
b00001000 Q
1S
b00000100 U
b00000100 V
1d
b00000100 l
b00000100 m
b00000100 n
#45000
0#
0.
0S
0d
#50000
1#
b00000010 %
b0000000000000000000000000000000000000000000000000000000000000000000000000000000000000000000000000000000000000000000000000000000000000000000000000000000000000000000000000000000000000000000000000000000000000000000000000000000000000000000000000000000000000101 &
1.
b00000010 0
b0000000000000000000000000000000000000000000000000000000000000000000000000000000000000000000000000000000000000000000000000000000000000000000000000000000000000000000000000000000000000000000000000000000000000000000000000000000000000000000000000000000000000101 1
b00000101 B
b00000101 C
b00001010 D
b00000101 K
b00000101 L
b00000101 M
b00001010 O
b00101111 P
b00001010 Q
1S
b00000101 U
b00000101 V
1d
b00000101 l
b00000101 m
b00000101 n
#55000
0#
0.
0S
0d
#60000
1#
b00110010 %
b0000000000000000000000000000000000000000000000000000000000000000000000000000000000000000000000000000000000000000000000000000000000000000000000000000000000000000000000000000000000000000000000000000000000000000000000000000000000000000000000000000000000000110 &
1.
b00110010 0
b0000000000000000000000000000000000000000000000000000000000000000000000000000000000000000000000000000000000000000000000000000000000000000000000000000000000000000000000000000000000000000000000000000000000000000000000000000000000000000000000000000000000000110 1
b00000110 B
b00000110 C
b00001100 D
b00000110 K
b00000110 L
b00000110 M
b00001100 O
b00100101 P
b00001100 Q
1S
b00000110 U
b00000110 V
1d
b00000110 l
b00000110 m
b00000110 n
#65000
0#
0.
0S
0d
#70000
1#
b01000011 %
b0000000000000000000000000000000000000000000000000000000000000000000000000000000000000000000000000000000000000000000000000000000000000000000000000000000000000000000000000000000000000000000000000000000000000000000000000000000000000000000000000000000000000111 &
1.
b01000011 0
b0000000000000000000000000000000000000000000000000000000000000000000000000000000000000000000000000000000000000000000000000000000000000000000000000000000000000000000000000000000000000000000000000000000000000000000000000000000000000000000000000000000000000111 1
b00000111 B
b00000111 C
b00001110 D
b00000111 K
b00000111 L
b00000111 M
b00001110 O
b00011110 P
b00001110 Q
1S
b00000111 U
b00000111 V
1d
b00000111 l
b00000111 m
b00000111 n
#75000
0#
0.
0S
0d
#80000
1#
b00010011 %
b0000000000000000000000000000000000000000000000000000000000000000000000000000000000000000000000000000000000000000000000000000000000000000000000000000000000000000000000000000000000000000000000000000000000000000000000000000000000000000000000000000000000001000 &
1.
b00010011 0
b0000000000000000000000000000000000000000000000000000000000000000000000000000000000000000000000000000000000000000000000000000000000000000000000000000000000000000000000000000000000000000000000000000000000000000000000000000000000000000000000000000000000001000 1
b00001000 B
b00001000 C
b00010000 D
b00001000 K
b00001000 L
b00001000 M
b00010000 O
b00011001 P
b00010000 Q
1S
b00001000 U
b00001000 V
1d
b00001000 l
b00001000 m
b00001000 n
#85000
0#
0.
0S
0d
#90000
1#
b11110000 %
b0000000000000000000000000000000000000000000000000000000000000000000000000000000000000000000000000000000000000000000000000000000000000000000000000000000000000000000000000000000000000000000000000000000000000000000000000000000000000000000000000000000000001001 &
1.
b11110000 0
b0000000000000000000000000000000000000000000000000000000000000000000000000000000000000000000000000000000000000000000000000000000000000000000000000000000000000000000000000000000000000000000000000000000000000000000000000000000000000000000000000000000000001001 1
b00001001 B
b00001001 C
b00010010 D
b00001001 K
b00001001 L
b00001001 M
b00010010 O
b00010100 P
b00010010 Q
1S
b00001001 U
b00001001 V
1d
b00001001 l
b00001001 m
b00001001 n
#95000
0#
0.
0S
0d
#100000
1#
b0000000000000000000000000000000000000000000000000000000000000000000000000000000000000000000000000000000000000000000000000000000000000000000000000000000000000000000000000000000000000000000000000000000000000000000000000000000000000000000000000000000000001010 &
1.
b0000000000000000000000000000000000000000000000000000000000000000000000000000000000000000000000000000000000000000000000000000000000000000000000000000000000000000000000000000000000000000000000000000000000000000000000000000000000000000000000000000000000001010 1
b00001010 B
b00001010 C
b00010100 D
b00001010 K
b00001010 L
b00001010 M
b00010100 O
b00010000 P
b00010100 Q
1S
b00001010 U
b00001010 V
1d
b00001010 l
b00001010 m
b00001010 n
#105000
0#
0.
0S
0d
#110000
1#
b0000000000000000000000000000000000000000000000000000000000000000000000000000000000000000000000000000000000000000000000000000000000000000000000000000000000000000000000000000000000000000000000000000000000000000000000000000000000000000000000000000000000001011 &
1.
b0000000000000000000000000000000000000000000000000000000000000000000000000000000000000000000000000000000000000000000000000000000000000000000000000000000000000000000000000000000000000000000000000000000000000000000000000000000000000000000000000000000000001011 1
b00001011 B
b00001011 C
b00010110 D
b00001011 K
b00001011 L
b00001011 M
b00010110 O
b00001101 P
b00010110 Q
1S
b00001011 U
b00001011 V
1d
b00001011 l
b00001011 m
b00001011 n
