template/your_testbench/dump.vcd
$version Generated by VerilatedVcd $end
$timescale 1ps $end
 $scope module $rootio $end
  $var wire 1 # clk $end
  $var wire 1 $ rst $end
  $var wire 8 % instr [7:0] $end
  $var wire 256 & cycle_count [255:0] $end
 $upscope $end
 $scope module top $end
  $var wire 1 . clk $end
  $var wire 1 / rst $end
  $var wire 8 0 instr [7:0] $end
  $var wire 256 1 cycle_count [255:0] $end
  $var wire 4 9 opcode [3:0] $end
  $var wire 2 : rd [1:0] $end
  $var wire 2 ; rs1 [1:0] $end
  $var wire 2 < rs2 [1:0] $end
  $var wire 1 = reg_wr_en $end
  $var wire 1 > ram_wr_en $end
  $var wire 1 ? sel_mem_to_reg $end
  $var wire 2 @ alu_op [1:0] $end
  $var wire 8 A rs1_data [7:0] $end
  $var wire 8 B rs2_data [7:0] $end
  $var wire 8 C alu_out [7:0] $end
  $var wire 8 D ram_rd_data [7:0] $end
  $var wire 8 E write_back_data [7:0] $end
  $scope module alu $end
   $var wire 32 n WIDTH [31:0] $end
   $var wire 1 F clk $end
   $var wire 1 G rst $end
   $var wire 2 H opcode [1:0] $end
   $var wire 8 I a [7:0] $end
   $var wire 8 J b [7:0] $end
   $var wire 8 K c [7:0] $end
   $var wire 8 L out [7:0] $end
   $var wire 16 M mult_res [15:0] $end
   $var wire 9 N add_res [8:0] $end
   $var wire 17 O smac_res [16:0] $end
  $upscope $end
  $scope module data_mem $end
   $var wire 32 o DEPTH [31:0] $end
   $var wire 32 n ADDR_WIDTH [31:0] $end
   $var wire 1 P clk $end
   $var wire 1 Q wr_en $end
   $var wire 8 R addr [7:0] $end
   $var wire 8 S wr_data [7:0] $end
   $var wire 8 T rd_data [7:0] $end
   $var wire 32 U i [31:0] $end
  $upscope $end
  $scope module decoder $end
   $var wire 8 V instr [7:0] $end
   $var wire 4 W opcode [3:0] $end
   $var wire 2 X rd [1:0] $end
   $var wire 2 Y rs1 [1:0] $end
   $var wire 2 Z rs2 [1:0] $end
   $var wire 1 [ reg_wr_en $end
   $var wire 1 \ ram_wr_en $end
   $var wire 2 ] alu_op [1:0] $end
   $var wire 1 ^ sel_mem_to_reg $end
   $var wire 1 _ halt $end
  $upscope $end
  $scope module rf $end
   $var wire 1 ` clk $end
   $var wire 1 a rst $end
   $var wire 1 b wr_en $end
   $var wire 2 c rd_addr [1:0] $end
   $var wire 2 d rs1_addr [1:0] $end
   $var wire 2 e rs2_addr [1:0] $end
   $var wire 8 f wr_data [7:0] $end
   $var wire 8 g rs1_data [7:0] $end
   $var wire 8 h rs2_data [7:0] $end
   $var wire 8 i regs[0] [7:0] $end
   $var wire 8 j regs[1] [7:0] $end
   $var wire 8 k regs[2] [7:0] $end
   $var wire 8 l regs[3] [7:0] $end
   $var wire 32 m i [31:0] $end
  $upscope $end
 $upscope $end
$enddefinitions $end


#0
1#
1$
b00000000 %
b0000000000000000000000000000000000000000000000000000000000000000000000000000000000000000000000000000000000000000000000000000000000000000000000000000000000000000000000000000000000000000000000000000000000000000000000000000000000000000000000000000000000000000 &
1.
1/
b00000000 0
b0000000000000000000000000000000000000000000000000000000000000000000000000000000000000000000000000000000000000000000000000000000000000000000000000000000000000000000000000000000000000000000000000000000000000000000000000000000000000000000000000000000000000000 1
b0000 9
b00 :
b00 ;
b00 <
1=
0>
1?
b00 @
b00000000 A
b00000000 B
b00000000 C
b00000000 D
b00000000 E
1F
1G
b00 H
b00000000 I
b00000000 J
b00000000 K
b00000000 L
b0000000000000000 M
b000000000 N
b00000000000000000 O
1P
0Q
b00000000 R
b00000000 S
b00000000 T
b00000000000000000000000001000000 U
b00000000 V
b0000 W
b00 X
b00 Y
b00 Z
1[
0\
b00 ]
1^
0_
1`
1a
1b
b00 c
b00 d
b00 e
b00000000 f
b00000000 g
b00000000 h
b00000000 i
b00000000 j
b00000000 k
b00000000 l
b00000000000000000000000000000100 m
b00000000000000000000000000001000 n
b00000000000000000000000001000000 o
#5000
0#
0.
0F
0P
0`
#10000
1#
1.
1F
1P
1`
#15000
0#
0.
0F
0P
0`
#20000
1#
0$
b00001100 %
b0000000000000000000000000000000000000000000000000000000000000000000000000000000000000000000000000000000000000000000000000000000000000000000000000000000000000000000000000000000000000000000000000000000000000000000000000000000000000000000000000000000000000001 &
1.
0/
b00001100 0
b0000000000000000000000000000000000000000000000000000000000000000000000000000000000000000000000000000000000000000000000000000000000000000000000000000000000000000000000000000000000000000000000000000000000000000000000000000000000000000000000000000000000000001 1
b11 :
b11 ;
1F
0G
1P
b00001100 V
b11 X
b11 Y
1`
0a
b11 c
b11 d
#25000
0#
0.
0F
0P
0`
#30000
1#
b0000000000000000000000000000000000000000000000000000000000000000000000000000000000000000000000000000000000000000000000000000000000000000000000000000000000000000000000000000000000000000000000000000000000000000000000000000000000000000000000000000000000000010 &
1.
b0000000000000000000000000000000000000000000000000000000000000000000000000000000000000000000000000000000000000000000000000000000000000000000000000000000000000000000000000000000000000000000000000000000000000000000000000000000000000000000000000000000000000010 1
1F
1P
1`
#31000
b00000001 %
b00000001 0
b00 :
b00 ;
b01 <
b00000001 V
b00 X
b00 Y
b01 Z
b00 c
b00 d
b01 e
#35000
0#
0.
0F
0P
0`
#40000
1#
b0000000000000000000000000000000000000000000000000000000000000000000000000000000000000000000000000000000000000000000000000000000000000000000000000000000000000000000000000000000000000000000000000000000000000000000000000000000000000000000000000000000000000011 &
1.
b0000000000000000000000000000000000000000000000000000000000000000000000000000000000000000000000000000000000000000000000000000000000000000000000000000000000000000000000000000000000000000000000000000000000000000000000000000000000000000000000000000000000000011 1
1F
1P
1`
#41000
b01000011 %
b01000011 0
b0100 9
b11 <
0?
b01 @
b01 H
b01000011 V
b0100 W
b11 Z
b01 ]
0^
b11 e
#45000
0#
0.
0F
0P
0`
#50000
1#
b0000000000000000000000000000000000000000000000000000000000000000000000000000000000000000000000000000000000000000000000000000000000000000000000000000000000000000000000000000000000000000000000000000000000000000000000000000000000000000000000000000000000000100 &
1.
b0000000000000000000000000000000000000000000000000000000000000000000000000000000000000000000000000000000000000000000000000000000000000000000000000000000000000000000000000000000000000000000000000000000000000000000000000000000000000000000000000000000000000100 1
b11111111 A
b11111111 C
b11111111 E
1F
b11111111 I
b11111111 K
b11111111 L
b011111111 N
b00000000011111111 O
1P
b11111111 R
1`
b11111111 f
b11111111 g
#51000
b00010010 %
b00010010 0
b0001 9
b10 <
0=
1>
b00 @
b00000000 A
b00 H
b00000000 I
b00000000 K
b000000000 N
b00000000000000000 O
1Q
b00000000 R
b00010010 V
b0001 W
b10 Z
0[
1\
b00 ]
0b
b10 e
b00000000 g
#55000
0#
0.
0F
0P
0`
#60000
1#
b0000000000000000000000000000000000000000000000000000000000000000000000000000000000000000000000000000000000000000000000000000000000000000000000000000000000000000000000000000000000000000000000000000000000000000000000000000000000000000000000000000000000000101 &
1.
b0000000000000000000000000000000000000000000000000000000000000000000000000000000000000000000000000000000000000000000000000000000000000000000000000000000000000000000000000000000000000000000000000000000000000000000000000000000000000000000000000000000000000101 1
b00000000 C
b00000000 E
1F
b00000000 L
1P
1`
b00000000 f
#61000
b00000001 %
b00000001 0
b0000 9
b01 <
1=
0>
1?
0Q
b00000001 V
b0000 W
b01 Z
1[
0\
1^
1b
b01 e
#65000
0#
0.
0F
0P
0`
#70000
1#
b0000000000000000000000000000000000000000000000000000000000000000000000000000000000000000000000000000000000000000000000000000000000000000000000000000000000000000000000000000000000000000000000000000000000000000000000000000000000000000000000000000000000000110 &
1.
b0000000000000000000000000000000000000000000000000000000000000000000000000000000000000000000000000000000000000000000000000000000000000000000000000000000000000000000000000000000000000000000000000000000000000000000000000000000000000000000000000000000000000110 1
1F
1P
1`
#71000
b00000111 %
b00000111 0
b01 :
b01 ;
b11 <
b00000111 V
b01 X
b01 Y
b11 Z
b01 c
b01 d
b11 e
#75000
0#
0.
0F
0P
0`
#80000
1#
b0000000000000000000000000000000000000000000000000000000000000000000000000000000000000000000000000000000000000000000000000000000000000000000000000000000000000000000000000000000000000000000000000000000000000000000000000000000000000000000000000000000000000111 &
1.
b0000000000000000000000000000000000000000000000000000000000000000000000000000000000000000000000000000000000000000000000000000000000000000000000000000000000000000000000000000000000000000000000000000000000000000000000000000000000000000000000000000000000000111 1
1F
1P
1`
#81000
b00001011 %
b00001011 0
b10 :
b10 ;
b00001011 V
b10 X
b10 Y
b10 c
b10 d
#85000
0#
0.
0F
0P
0`
#90000
1#
b0000000000000000000000000000000000000000000000000000000000000000000000000000000000000000000000000000000000000000000000000000000000000000000000000000000000000000000000000000000000000000000000000000000000000000000000000000000000000000000000000000000000001000 &
1.
b0000000000000000000000000000000000000000000000000000000000000000000000000000000000000000000000000000000000000000000000000000000000000000000000000000000000000000000000000000000000000000000000000000000000000000000000000000000000000000000000000000000000001000 1
1F
1P
1`
#91000
b00110010 %
b00110010 0
b0011 9
b00 :
b00 ;
b10 <
0?
b10 @
b10 H
b00110010 V
b0011 W
b00 X
b00 Y
b10 Z
b10 ]
0^
b00 c
b00 d
b10 e
#95000
0#
0.
0F
0P
0`
#100000
1#
b0000000000000000000000000000000000000000000000000000000000000000000000000000000000000000000000000000000000000000000000000000000000000000000000000000000000000000000000000000000000000000000000000000000000000000000000000000000000000000000000000000000000001001 &
1.
b0000000000000000000000000000000000000000000000000000000000000000000000000000000000000000000000000000000000000000000000000000000000000000000000000000000000000000000000000000000000000000000000000000000000000000000000000000000000000000000000000000000000001001 1
1F
1P
1`
#101000
b01000011 %
b01000011 0
b0100 9
b11 <
b01 @
b01 H
b01000011 V
b0100 W
b11 Z
b01 ]
b11 e
#105000
0#
0.
0F
0P
0`
#110000
1#
b0000000000000000000000000000000000000000000000000000000000000000000000000000000000000000000000000000000000000000000000000000000000000000000000000000000000000000000000000000000000000000000000000000000000000000000000000000000000000000000000000000000000001010 &
1.
b0000000000000000000000000000000000000000000000000000000000000000000000000000000000000000000000000000000000000000000000000000000000000000000000000000000000000000000000000000000000000000000000000000000000000000000000000000000000000000000000000000000000001010 1
b11111111 A
b11111111 C
b11111111 E
1F
b11111111 I
b11111111 K
b11111111 L
b011111111 N
b00000000011111111 O
1P
b11111111 R
1`
b11111111 f
b11111111 g
#111000
b00010011 %
b00010011 0
b0001 9
0=
1>
b00 @
b00000000 A
b00 H
b00000000 I
b00000000 K
b000000000 N
b00000000000000000 O
1Q
b00000000 R
b00010011 V
b0001 W
0[
1\
b00 ]
0b
b00000000 g
#115000
0#
0.
0F
0P
0`
#120000
1#
b0000000000000000000000000000000000000000000000000000000000000000000000000000000000000000000000000000000000000000000000000000000000000000000000000000000000000000000000000000000000000000000000000000000000000000000000000000000000000000000000000000000000001011 &
1.
b0000000000000000000000000000000000000000000000000000000000000000000000000000000000000000000000000000000000000000000000000000000000000000000000000000000000000000000000000000000000000000000000000000000000000000000000000000000000000000000000000000000000001011 1
b00000000 C
b00000000 E
1F
b00000000 L
1P
1`
b00000000 f
#121000
b11110000 %
b11110000 0
b1111 9
b00 <
0>
0Q
b11110000 V
b1111 W
b00 Z
0\
1_
b00 e
#125000
0#
0.
0F
0P
0`
#130000
1#
b0000000000000000000000000000000000000000000000000000000000000000000000000000000000000000000000000000000000000000000000000000000000000000000000000000000000000000000000000000000000000000000000000000000000000000000000000000000000000000000000000000000000001100 &
1.
b0000000000000000000000000000000000000000000000000000000000000000000000000000000000000000000000000000000000000000000000000000000000000000000000000000000000000000000000000000000000000000000000000000000000000000000000000000000000000000000000000000000000001100 1
1F
1P
1`
#135000
0#
0.
0F
0P
0`
#140000
1#
b0000000000000000000000000000000000000000000000000000000000000000000000000000000000000000000000000000000000000000000000000000000000000000000000000000000000000000000000000000000000000000000000000000000000000000000000000000000000000000000000000000000000001101 &
1.
b0000000000000000000000000000000000000000000000000000000000000000000000000000000000000000000000000000000000000000000000000000000000000000000000000000000000000000000000000000000000000000000000000000000000000000000000000000000000000000000000000000000000001101 1
1F
1P
1`
#145000
0#
0.
0F
0P
0`
#150000
1#
b0000000000000000000000000000000000000000000000000000000000000000000000000000000000000000000000000000000000000000000000000000000000000000000000000000000000000000000000000000000000000000000000000000000000000000000000000000000000000000000000000000000000001110 &
1.
b0000000000000000000000000000000000000000000000000000000000000000000000000000000000000000000000000000000000000000000000000000000000000000000000000000000000000000000000000000000000000000000000000000000000000000000000000000000000000000000000000000000000001110 1
1F
1P
1`
#155000
0#
0.
0F
0P
0`
#160000
1#
b0000000000000000000000000000000000000000000000000000000000000000000000000000000000000000000000000000000000000000000000000000000000000000000000000000000000000000000000000000000000000000000000000000000000000000000000000000000000000000000000000000000000001111 &
1.
b0000000000000000000000000000000000000000000000000000000000000000000000000000000000000000000000000000000000000000000000000000000000000000000000000000000000000000000000000000000000000000000000000000000000000000000000000000000000000000000000000000000000001111 1
1F
1P
1`
#165000
0#
0.
0F
0P
0`
#170000
1#
b0000000000000000000000000000000000000000000000000000000000000000000000000000000000000000000000000000000000000000000000000000000000000000000000000000000000000000000000000000000000000000000000000000000000000000000000000000000000000000000000000000000000010000 &
1.
b0000000000000000000000000000000000000000000000000000000000000000000000000000000000000000000000000000000000000000000000000000000000000000000000000000000000000000000000000000000000000000000000000000000000000000000000000000000000000000000000000000000000010000 1
1F
1P
1`
#175000
0#
0.
0F
0P
0`
#180000
1#
b0000000000000000000000000000000000000000000000000000000000000000000000000000000000000000000000000000000000000000000000000000000000000000000000000000000000000000000000000000000000000000000000000000000000000000000000000000000000000000000000000000000000010001 &
1.
b0000000000000000000000000000000000000000000000000000000000000000000000000000000000000000000000000000000000000000000000000000000000000000000000000000000000000000000000000000000000000000000000000000000000000000000000000000000000000000000000000000000000010001 1
1F
1P
1`
